new-RTL-trials/C3_custom_SIMD_instruction_tb.vcd
$date
	Tue Jul 23 17:44:16 2024
$end
$version
	Icarus Verilog
$end
$timescale
	1ps
$end
$scope module C3_custom_SIMD_instruction_tb $end
$var wire 128 ! out_vdata1 [127:0] $end
$var wire 128 " out_vdata2 [127:0] $end
$var wire 3 # out_vrd2 [2:0] $end
$var wire 3 $ out_vrd1 [2:0] $end
$var wire 1 % out_v $end
$var wire 5 & out_rd [4:0] $end
$var wire 32 ' out_data [31:0] $end
$var reg 1 ( clk $end
$var reg 32 ) in_data [31:0] $end
$var reg 128 * in_vdata1 [127:0] $end
$var reg 128 + in_vdata2 [127:0] $end
$var reg 1 , pop $end
$var reg 1 - push $end
$var reg 5 . rd [4:0] $end
$var reg 1 / reset $end
$var reg 3 0 vrd1 [2:0] $end
$var reg 3 1 vrd2 [2:0] $end
$var integer 32 2 i [31:0] $end
$scope module uut $end
$var wire 1 ( clk $end
$var wire 32 3 in_data [31:0] $end
$var wire 128 4 in_vdata1 [127:0] $end
$var wire 128 5 in_vdata2 [127:0] $end
$var wire 128 6 out_vdata1 [127:0] $end
$var wire 128 7 out_vdata2 [127:0] $end
$var wire 1 , pop $end
$var wire 1 - push $end
$var wire 5 8 rd [4:0] $end
$var wire 1 / reset $end
$var wire 3 9 vrd1 [2:0] $end
$var wire 3 : vrd2 [2:0] $end
$var wire 3 ; out_vrd2 [2:0] $end
$var wire 3 < out_vrd1 [2:0] $end
$var wire 1 % out_v $end
$var wire 5 = out_rd [4:0] $end
$var wire 32 > out_data [31:0] $end
$var wire 1 ? heap_full $end
$var wire 1 @ heap_empty $end
$var parameter 5 A HEAPIFY_DOWN $end
$var parameter 5 B HEAPIFY_UP $end
$var parameter 5 C IDLE $end
$var parameter 5 D POP $end
$var parameter 5 E PUSH $end
$var reg 8 F heap_data_out [7:0] $end
$var reg 5 G heap_size [4:0] $end
$var reg 5 H i [4:0] $end
$var reg 5 I idx [4:0] $end
$var reg 5 J largest_idx [4:0] $end
$var reg 5 K left_idx [4:0] $end
$var reg 5 L parent_idx [4:0] $end
$var reg 25 M rd_sr [24:0] $end
$var reg 5 N right_idx [4:0] $end
$var reg 5 O state [4:0] $end
$var reg 8 P temp [7:0] $end
$var reg 5 Q valid_sr [4:0] $end
$var reg 15 R vrd1_sr [14:0] $end
$var reg 15 S vrd2_sr [14:0] $end
$upscope $end
$scope task pop_element $end
$upscope $end
$scope task push_element $end
$var reg 8 T value [7:0] $end
$upscope $end
$scope task wait_for_idle $end
$upscope $end
$upscope $end
$enddefinitions $end
$comment Show the parameter values. $end
$dumpall
b1 E
b10 D
b0 C
b11 B
b100 A
$end
#0
$dumpvars
bx T
bx S
bx R
bx Q
bx P
bx O
bx N
bx M
bx L
bx K
bx J
bx I
bx H
bx G
bx F
x@
x?
b0xxxxxxxx >
bx =
bx <
bx ;
b0 :
b0 9
b0 8
b0 7
b0 6
b0 5
b0 4
b0 3
bx 2
b0 1
b0 0
0/
b0 .
0-
0,
b0 +
b0 *
b0 )
0(
b0xxxxxxxx '
bx &
x%
bx $
bx #
b0 "
b0 !
$end
#5000
bx000 S
bx000 R
bx00000 M
bx0 Q
1(
#10000
b0 O
1@
0?
b0 G
b10000 H
0(
1/
#15000
b0 #
b0 ;
b0 $
b0 <
b0 &
b0 =
0%
b0 S
b0 R
b0 M
b0 Q
b10000 H
1(
#20000
1-
b100100 )
b100100 3
0(
b100100 T
b0 2
0/
#25000
b0 I
b11 O
0@
b1 G
b1 Q
1(
#30000
b0 )
b0 3
0-
0(
#35000
b0 O
b10 Q
b11111 L
1(
#40000
b10000001 T
b1 2
0(
#45000
b100 Q
1(
#50000
1-
b10000001 )
b10000001 3
0(
#55000
b1 I
b11 O
b10 G
b1001 Q
1(
#60000
b0 )
b0 3
0-
0(
#65000
1%
b10010 Q
b0 I
b10000001 P
b0 L
1(
#70000
0(
#75000
0%
b0 O
b100 Q
b11111 L
1(
#80000
b1001 T
b10 2
0(
#85000
b1000 Q
1(
#90000
1-
b1001 )
b1001 3
0(
#95000
1%
b10 I
b11 O
b11 G
b10001 Q
1(
#100000
b0 )
b0 3
0-
0(
#105000
0%
b0 O
b10 Q
b0 L
1(
#110000
b1100011 T
b11 2
0(
#115000
b100 Q
1(
#120000
1-
b1100011 )
b1100011 3
0(
#125000
b11 I
b11 O
b100 G
b1001 Q
1(
#130000
b0 )
b0 3
0-
0(
#135000
1%
b10010 Q
b1 I
b1100011 P
b1 L
1(
#140000
0(
#145000
0%
b0 O
b100 Q
b0 L
1(
#150000
b1101 T
b100 2
0(
#155000
b1000 Q
1(
#160000
1-
b1101 )
b1101 3
0(
#165000
1%
b100 I
b11 O
b101 G
b10001 Q
1(
#170000
b0 )
b0 3
0-
0(
#175000
0%
b0 O
b10 Q
b1 L
1(
#180000
b10001101 T
b101 2
0(
#185000
b100 Q
1(
#190000
1-
b10001101 )
b10001101 3
0(
#195000
b101 I
b11 O
b110 G
b1001 Q
1(
#200000
b0 )
b0 3
0-
0(
#205000
1%
b10010 Q
b10 I
b10001101 P
b10 L
1(
#210000
0(
#215000
0%
b100 Q
b0 I
b0 L
1(
#220000
0(
#225000
b0 O
b1000 Q
b11111 L
1(
#230000
b1100101 T
b110 2
0(
#235000
1%
b10000 Q
1(
#240000
1-
b1100101 )
b1100101 3
0(
#245000
0%
b110 I
b11 O
b111 G
b1 Q
1(
#250000
b0 )
b0 3
0-
0(
#255000
b0 O
b10 Q
b10 L
1(
#260000
b10010 T
b111 2
0(
#265000
b100 Q
1(
#270000
1-
b10010 )
b10010 3
0(
#275000
b111 I
b11 O
b1000 G
b1001 Q
1(
#280000
b0 )
b0 3
0-
0(
#285000
1%
b0 O
b10010 Q
b11 L
1(
#290000
b1 T
b1000 2
0(
#295000
0%
b100 Q
1(
#300000
1-
b1 )
b1 3
0(
#305000
b1000 I
b11 O
b1001 G
b1001 Q
1(
#310000
b0 )
b0 3
0-
0(
#315000
1%
b0 O
b10010 Q
1(
#320000
b1101 T
b1001 2
0(
#325000
0%
b100 Q
1(
#330000
1-
b1101 )
b1101 3
0(
#335000
b1001 I
b11 O
b1010 G
b1001 Q
1(
#340000
b0 )
b0 3
0-
0(
#345000
1%
b0 O
b10010 Q
b100 L
1(
#350000
b1110110 T
b1010 2
0(
#355000
0%
b100 Q
1(
#360000
1-
b1110110 )
b1110110 3
0(
#365000
b1010 I
b11 O
b1011 G
b1001 Q
1(
#370000
b0 )
b0 3
0-
0(
#375000
1%
b10010 Q
b100 I
b1110110 P
1(
#380000
0(
#385000
0%
b100 Q
b1 I
b1 L
1(
#390000
0(
#395000
b0 O
b1000 Q
b0 L
1(
#400000
b111101 T
b1011 2
0(
#405000
1%
b10000 Q
1(
#410000
1-
b111101 )
b111101 3
0(
#415000
0%
b1011 I
b11 O
b1100 G
b1 Q
1(
#420000
b0 )
b0 3
0-
0(
#425000
b10 Q
b101 I
b111101 P
b101 L
1(
#430000
0(
#435000
b0 O
b100 Q
b10 L
1(
#440000
b11101101 T
b1100 2
0(
#445000
b1000 Q
1(
#450000
1-
b11101101 )
b11101101 3
0(
#455000
1%
b1100 I
b11 O
b1101 G
b10001 Q
1(
#460000
b0 )
b0 3
0-
0(
#465000
0%
b10 Q
b101 I
b11101101 P
b101 L
1(
#470000
0(
#475000
b100 Q
b10 I
b10 L
1(
#480000
0(
#485000
b1000 Q
b0 I
b0 L
1(
#490000
0(
#495000
1%
b0 O
b10000 Q
b11111 L
1(
#500000
b10001100 T
b1101 2
0(
#505000
0%
b0 Q
1(
#510000
1-
b10001100 )
b10001100 3
0(
#515000
b1101 I
b11 O
b1110 G
b1 Q
1(
#520000
b0 )
b0 3
0-
0(
#525000
b10 Q
b110 I
b10001100 P
b110 L
1(
#530000
0(
#535000
b0 O
b100 Q
b10 L
1(
#540000
b11111001 T
b1110 2
0(
#545000
b1000 Q
1(
#550000
1-
b11111001 )
b11111001 3
0(
#555000
1%
b1110 I
b11 O
b1111 G
b10001 Q
1(
#560000
b0 )
b0 3
0-
0(
#565000
0%
b10 Q
b110 I
b11111001 P
b110 L
1(
#570000
0(
#575000
b100 Q
b10 I
b10 L
1(
#580000
0(
#585000
b1000 Q
b0 I
b0 L
1(
#590000
0(
#595000
1%
b0 O
b10000 Q
b11111 L
1(
#600000
b11000110 T
b1111 2
0(
#605000
0%
b0 Q
1(
#610000
1-
b11000110 )
b11000110 3
0(
#615000
b1111 I
b11 O
1?
b10000 G
b1 Q
1(
#620000
b0 )
b0 3
0-
0(
#625000
b10 Q
b111 I
b11000110 P
b111 L
1(
#630000
0(
#635000
b100 Q
b11 I
b11 L
1(
#640000
0(
#645000
b1000 Q
b1 I
b1 L
1(
#650000
0(
#655000
1%
b0 O
b10000 Q
b0 L
1(
#660000
b10000 2
0(
#665000
0%
b0 Q
1(
#670000
0(
#675000
1(
#680000
0(
#685000
1(
#690000
0(
#695000
1(
#700000
0(
#705000
1(
#710000
0(
#715000
1(
#720000
0(
#725000
1(
#730000
0(
#735000
1(
#740000
0(
#745000
1(
#750000
0(
#755000
1(
#760000
1,
0(
b0 2
#765000
b0 I
b100 O
0?
b1111 G
b11111001 '
b11111001 >
b11111001 F
1(
#770000
0,
0(
#775000
b10 I
b10010 P
b10 J
b10 N
b1 K
1(
#780000
0(
#785000
b110 I
b110 J
b110 N
b101 K
1(
#790000
0(
#795000
b1110 I
b1110 J
b1110 N
b1101 K
1(
#800000
0(
#805000
b0 O
b11110 N
b11101 K
1(
#810000
b1 2
0(
#815000
1(
#820000
1,
0(
#825000
b0 I
b100 O
b1110 G
b11101101 '
b11101101 >
b11101101 F
1(
#830000
0,
0(
#835000
b1 I
b1 J
b10 N
b1 K
1(
#840000
0(
#845000
b11 I
b11 J
b100 N
b11 K
1(
#850000
0(
#855000
b111 I
b111 J
b1000 N
b111 K
1(
#860000
0(
#865000
b0 O
b10000 N
b1111 K
1(
#870000
b10 2
0(
#875000
1(
#880000
1,
0(
#885000
b0 I
b100 O
b1101 G
b11000110 '
b11000110 >
b11000110 F
1(
#890000
0,
0(
#895000
b10 I
b1100101 P
b10 J
b10 N
b1 K
1(
#900000
0(
#905000
b110 I
b110 J
b110 N
b101 K
1(
#910000
0(
#915000
b0 O
b1110 N
b1101 K
1(
#920000
b11 2
0(
#925000
1(
#930000
1,
0(
#935000
b0 I
b100 O
b1100 G
b10001101 '
b10001101 >
b10001101 F
1(
#940000
0,
0(
#945000
b10 I
b111101 P
b10 J
b10 N
b1 K
1(
#950000
0(
#955000
b101 I
b101 J
b110 N
b101 K
1(
#960000
0(
#965000
b0 O
b1100 N
b1011 K
1(
#970000
b100 2
0(
#975000
1(
#980000
1,
0(
#985000
b0 I
b100 O
b1011 G
b10001100 '
b10001100 >
b10001100 F
1(
#990000
0,
0(
#995000
b10 I
b1001 P
b10 J
b10 N
b1 K
1(
#1000000
0(
#1005000
b110 I
b110 J
b110 N
b101 K
1(
#1010000
0(
#1015000
b0 O
b1110 N
b1101 K
1(
#1020000
b101 2
0(
#1025000
1(
#1030000
1,
0(
#1035000
b0 I
b100 O
b1010 G
b10000001 '
b10000001 >
b10000001 F
1(
#1040000
0,
0(
#1045000
b1 I
b1101 P
b1 J
b10 N
b1 K
1(
#1050000
0(
#1055000
b100 I
b100 J
b100 N
b11 K
1(
#1060000
0(
#1065000
b0 O
b1010 N
b1001 K
1(
#1070000
b110 2
0(
#1075000
1(
#1080000
1,
0(
#1085000
b0 I
b100 O
b1001 G
b1110110 '
b1110110 >
b1110110 F
1(
#1090000
0,
0(
#1095000
b10 I
b10 J
b10 N
b1 K
1(
#1100000
0(
#1105000
b101 I
b101 J
b110 N
b101 K
1(
#1110000
0(
#1115000
b0 O
b1100 N
b1011 K
1(
#1120000
b111 2
0(
#1125000
1(
#1130000
1,
0(
#1135000
b0 I
b100 O
b1000 G
b1100101 '
b1100101 >
b1100101 F
1(
#1140000
0,
0(
#1145000
b1 I
b1 P
b1 J
b10 N
b1 K
1(
#1150000
0(
#1155000
b11 I
b11 J
b100 N
b11 K
1(
#1160000
0(
#1165000
b111 I
b111 J
b1000 N
b111 K
1(
#1170000
0(
#1175000
b0 O
b10000 N
b1111 K
1(
#1180000
b1000 2
0(
#1185000
1(
#1190000
1,
0(
#1195000
b0 I
b100 O
b111 G
b1100011 '
b1100011 >
b1100011 F
1(
#1200000
0,
0(
#1205000
b10 I
b10 J
b10 N
b1 K
1(
#1210000
0(
#1215000
b101 I
b101 J
b110 N
b101 K
1(
#1220000
0(
#1225000
b0 O
b1100 N
b1011 K
1(
#1230000
b1001 2
0(
#1235000
1(
#1240000
1,
0(
#1245000
b0 I
b100 O
b110 G
b111101 '
b111101 >
b111101 F
1(
#1250000
0,
0(
#1255000
b1 I
b1001 P
b1 J
b10 N
b1 K
1(
#1260000
0(
#1265000
b11 I
b11 J
b100 N
b11 K
1(
#1270000
0(
#1275000
b0 O
b1000 N
b111 K
1(
#1280000
b1010 2
0(
#1285000
1(
#1290000
1,
0(
#1295000
b0 I
b100 O
b101 G
b100100 '
b100100 >
b100100 F
1(
#1300000
0,
0(
#1305000
b1 I
b1 P
b1 J
b10 N
b1 K
1(
#1310000
0(
#1315000
b100 I
b100 J
b100 N
b11 K
1(
#1320000
0(
#1325000
b0 O
b1010 N
b1001 K
1(
#1330000
b1011 2
0(
#1335000
1(
#1340000
1,
0(
#1345000
b0 I
b100 O
b100 G
b10010 '
b10010 >
b10010 F
1(
#1350000
0,
0(
#1355000
b1 I
b1 J
b10 N
b1 K
1(
#1360000
0(
#1365000
b11 I
b11 J
b100 N
b11 K
1(
#1370000
0(
#1375000
b0 O
b1000 N
b111 K
1(
#1380000
b1100 2
0(
#1385000
1(
#1390000
1,
0(
#1395000
b0 I
b100 O
b11 G
b1101 '
b1101 >
b1101 F
1(
#1400000
0,
0(
#1405000
b10 I
b10 J
b10 N
b1 K
1(
#1410000
0(
#1415000
b0 O
b110 N
b101 K
1(
#1420000
b1101 2
0(
#1425000
1(
#1430000
1,
0(
#1435000
b0 I
b100 O
b10 G
1(
#1440000
0,
0(
#1445000
b1 I
b1 J
b10 N
b1 K
1(
#1450000
0(
#1455000
b0 O
b100 N
b11 K
1(
#1460000
b1110 2
0(
#1465000
1(
#1470000
1,
0(
#1475000
b0 I
b100 O
b1 G
b1001 '
b1001 >
b1001 F
1(
#1480000
0,
0(
#1485000
b0 O
b0 J
b10 N
b1 K
1(
#1490000
b1111 2
0(
#1495000
1(
#1500000
1,
0(
#1505000
b100 O
1@
b0 G
b1 '
b1 >
b1 F
1(
#1510000
0,
0(
#1515000
b0 O
1(
#1520000
b10000 2
0(
